dataFileVersion =   4
numFileSegments =   1
minCoordinates = [
	-57.000000
	-57.000000
	-57.000000
	]
maxCoordinates = [
	57.000000
	57.000000
	57.000000
	]
dataDecompType =   1
dataDecompGeometry = [
   1
   1
   1
	]

nodeCount =   0

domainDecomposition =
	-57.000000
	-57.000000
	-57.000000
	57.000000
	57.000000
	57.000000
nodalData =

